\BOOKMARK [1][-]{section.1}{\376\377\000I\000n\000t\000r\000o\000d\000u\000c\000t\000i\000o\000n}{}% 1
\BOOKMARK [1][-]{section.2}{\376\377\000P\000o\000p\000u\000l\000a\000t\000i\000o\000n\000s\000\040\000a\000n\000d\000\040\000p\000o\000p\000u\000l\000a\000t\000i\000o\000n\000\040\000d\000e\000f\000i\000n\000i\000t\000i\000o\000n}{}% 2
\BOOKMARK [1][-]{section.3}{\376\377\000C\000e\000n\000s\000u\000s\000\040\000a\000n\000d\000\040\000s\000p\000a\000n}{}% 3
\BOOKMARK [1][-]{section.4}{\376\377\000I\000n\000d\000i\000v\000i\000d\000u\000a\000l\000s\000\040\000a\000n\000d\000\040\000e\000v\000e\000n\000t\000s}{}% 4
\BOOKMARK [1][-]{section.5}{\376\377\000S\000u\000b\000p\000o\000p\000u\000l\000a\000t\000i\000o\000n\000s}{}% 5
\BOOKMARK [1][-]{section.6}{\376\377\000C\000o\000h\000o\000r\000t\000s}{}% 6
\BOOKMARK [1][-]{section.7}{\376\377\000P\000o\000p\000u\000l\000a\000t\000i\000o\000n\000\040\000e\000q\000u\000a\000t\000i\000o\000n\000s}{}% 7
\BOOKMARK [1][-]{section.8}{\376\377\000P\000r\000o\000d\000u\000c\000t\000i\000o\000n\000\040\000a\000n\000d\000\040\000R\000e\000p\000r\000o\000d\000u\000c\000t\000i\000o\000n}{}% 8
\BOOKMARK [1][-]{section.9}{\376\377\000C\000o\000n\000c\000l\000u\000s\000i\000o\000n}{}% 9
\BOOKMARK [1][-]{section.10}{\376\377\000A\000c\000k\000n\000o\000w\000l\000e\000d\000g\000e\000m\000e\000n\000t\000s}{}% 10
\BOOKMARK [1][-]{section.10}{\376\377\000R\000e\000f\000e\000r\000e\000n\000c\000e\000s}{}% 11
