\relax 
\providecommand\babel@aux[2]{}
\@nameuse{bbl@beforestart}
\catcode `"\active 
\providecommand\hyper@newdestlabel[2]{}
\providecommand\HyperFirstAtBeginDocument{\AtBeginDocument}
\HyperFirstAtBeginDocument{\ifx\hyper@anchor\@undefined
\global\let\oldnewlabel\newlabel
\gdef\newlabel#1#2{\newlabelxx{#1}#2}
\gdef\newlabelxx#1#2#3#4#5#6{\oldnewlabel{#1}{{#2}{#3}}}
\AtEndDocument{\ifx\hyper@anchor\@undefined
\let\newlabel\oldnewlabel
\fi}
\fi}
\global\let\hyper@last\relax 
\gdef\HyperFirstAtBeginDocument#1{#1}
\providecommand\HyField@AuxAddToFields[1]{}
\providecommand\HyField@AuxAddToCoFields[2]{}
\providecommand \oddpage@label [2]{}
\babel@aux{english}{}
\citation{boulding-1934}
\@writefile{toc}{\contentsline {section}{\numberline {1}Introduction}{2}{section.1}\protected@file@percent }
\newlabel{Introduction}{{1}{2}{Introduction}{section.1}{}}
\citation{united-nations-1953}
\@writefile{toc}{\contentsline {section}{\numberline {2}Populations and population definition}{3}{section.2}\protected@file@percent }
\newlabel{populations-and-population-definition}{{2}{3}{Populations and population definition}{section.2}{}}
\@writefile{toc}{\contentsline {section}{\numberline {3}Census and span}{3}{section.3}\protected@file@percent }
\newlabel{census-and-span}{{3}{3}{Census and span}{section.3}{}}
\citation{united-nations-2004}
\@writefile{toc}{\contentsline {section}{\numberline {4}Individuals and events}{4}{section.4}\protected@file@percent }
\newlabel{individuals-and-events}{{4}{4}{Individuals and events}{section.4}{}}
\@writefile{toc}{\contentsline {section}{\numberline {5}Subpopulations}{5}{section.5}\protected@file@percent }
\newlabel{subpopulations}{{5}{5}{Subpopulations}{section.5}{}}
\@writefile{toc}{\contentsline {section}{\numberline {6}Cohorts}{6}{section.6}\protected@file@percent }
\newlabel{cohorts}{{6}{6}{Cohorts}{section.6}{}}
\@writefile{toc}{\contentsline {section}{\numberline {7}Population equations}{6}{section.7}\protected@file@percent }
\newlabel{population-equations}{{7}{6}{Population equations}{section.7}{}}
\citation{feeney-2003,feeney-2004}
\citation{preston-heuveline-guillot-2001}
\citation{boulding-1955}
\@writefile{toc}{\contentsline {section}{\numberline {8}Production and Reproduction}{8}{section.8}\protected@file@percent }
\newlabel{reproduction}{{8}{8}{Production and Reproduction}{section.8}{}}
\@writefile{toc}{\contentsline {section}{\numberline {9}Conclusion}{9}{section.9}\protected@file@percent }
\newlabel{conclusion}{{9}{9}{Conclusion}{section.9}{}}
\@writefile{toc}{\contentsline {section}{\numberline {10}Acknowledgements}{9}{section.10}\protected@file@percent }
\bibstyle{DemRes}
\bibcite{boulding-1934}{{1}{1934}{{Boulding}}{{Boulding}}}
\bibcite{boulding-1955}{{2}{1955}{{Boulding}}{{Boulding}}}
\bibcite{clark-1949}{{3}{1949}{{Clark}}{{Clark}}}
\bibcite{feeney-2003}{{4}{2003}{{Feeney}}{{Feeney}}}
\bibcite{feeney-2004}{{5}{2004}{{Feeney}}{{Feeney}}}
\bibcite{feeney-saito-1985}{{6}{1985}{{Feeney and Saito}}{{Feeney and Saito}}}
\bibcite{feeney-yu-1987}{{7}{1987}{{Feeney and Yu}}{{Feeney and Yu}}}
\bibcite{hajnal-1953}{{8}{1953}{{Hajnal}}{{Hajnal}}}
\bibcite{halmos-1960}{{9}{1960/2017}{{Halmos}}{{Halmos}}}
\bibcite{knibbs-1917}{{10}{1917}{{Knibbs}}{{Knibbs}}}
\bibcite{ni-bhrolchain-1987}{{11}{1987}{{N\'i Bhrolch\'ain}}{{N\'i Bhrolch\'ain}}}
\bibcite{potter-1966}{{12}{1966}{{Potter}}{{Potter}}}
\bibcite{preston-heuveline-guillot-2001}{{13}{2001}{{Preston, Heuveline, and Guillot}}{{ Preston, Heuveline and Guillot}}}
\bibcite{united-nations-1953}{{14}{1953}{{United Nations}}{{United Nations}}}
\@writefile{toc}{\contentsline {section}{\hbox to\@tempdima {\hfil }References}{10}{section.10}\protected@file@percent }
\bibcite{united-nations-1955}{{15}{1955}{{United Nations}}{{United Nations}}}
\bibcite{united-nations-2004}{{16}{2004}{{United Nations}}{{United Nations}}}
\citation{*}
\newlabel{LastPage}{{}{12}{}{page.12}{}}
\xdef\lastpage@lastpage{12}
\xdef\lastpage@lastpageHy{12}
\gdef \@abspage@last{14}
